…
This is an example of the power of this package - it can reproduce and update tables through the simple updating of the data in its raw format online.

First, ensure the package is in the Environment. Note you would have to have installed the package first (see [above](#inst) - only needs to be done once per desktop).

``` r
library(LStest) 
```

Second, download the raw data from online.

``` r
raw <- api_get_data("https://statistics-api.dft.gov.uk/api/roadtraffic/quarterly") 
raw
#> # A tibble: 1,900 x 5
#>     year quarter road_type vehicle_type estimate
#>    <dbl>   <dbl> <chr>     <chr>           <dbl>
#>  1  1994    1.00 AR        cars           21.8  
#>  2  1994    1.00 AR        hgv             2.22 
#>  3  1994    1.00 AR        lgv             2.77 
#>  4  1994    1.00 AR        other           0.324
#>  5  1994    1.00 AU        cars           15.9  
#>  6  1994    1.00 AU        hgv             0.762
#>  7  1994    1.00 AU        lgv             1.80 
#>  8  1994    1.00 AU        other           0.428
#>  9  1994    1.00 MR        cars           11.1  
#> 10  1994    1.00 MR        hgv             0.433
#> # ... with 1,890 more rows
```
…
